^C:\USERS\SEREN\ONEDRIVE\DESKTOP\C++\C7\C7\DEBUG\C7.OBJ
C:\USERS\SEREN\ONEDRIVE\DESKTOP\C++\C7\DEBUG\C7.ILK
C:\USERS\SEREN\ONEDRIVE\DESKTOP\C++\C7\DEBUG\C7.EXE
C:\USERS\SEREN\ONEDRIVE\DESKTOP\C++\C7\DEBUG\C7.PDB
